{
  "family": "buildersapp-task",
  "networkMode": "awsvpc",
  "executionRoleArn": "myEcsTaskExecutionRole",
  "containerDefinitions":[
    {
      "name": "builders-app",
      "image": "${IMAGE_NAME}",
      "logConfiguration": {
        "logDriver": "awslogs",
        "options": {
         "awslogs-group": "/ecs/builders-app",
         "awslogs-region": "us-east-1",
         "awslogs-stream-prefix": "ecs"
       }
    },
    "environment": [
      {
        "name": "SEC_PASS",
        "value": "${SEC_PASS}"
      }
    ],
    "portMappings": [
      {
        "containerPort": 8080,
        "hostPort": 8080
      }
    ]
  }
  ],
  "requiresCompatibilities": [
    "FARGATE"
  ],
  "cpu": "1024",
  "memory": "2048"
}